{
	"apps": [
		{
			"id": 1,
			"name": "Skype",
			"category": null,
			"description": "Call your app friends"
		},
		{
			"id": 2,
			"name": "Netflix",
			"category": null,
			"description": "Chill with your app friends"
		},
		{
			"id": 3,
			"name": "Calculator",
			"category": null,
			"description": "Double check your app friends"
		}
	]
}